module myproject

go 1.16

require (
	github.com/gobuffalo/buffalo v0.18.5
	github.com/gobuffalo/buffalo-pop/v3 v3.0.3
	github.com/gobuffalo/envy v1.10.1
	github.com/gobuffalo/mw-csrf v1.0.0
	github.com/gobuffalo/mw-forcessl v0.0.0-20200131175327-94b2bd771862
	github.com/gobuffalo/mw-i18n/v2 v2.0.1
	github.com/gobuffalo/mw-paramlogger v1.0.0
	github.com/gobuffalo/pop/v6 v6.0.1
	github.com/gobuffalo/suite/v4 v4.0.2
	github.com/gobuffalo/validate/v3 v3.3.1
	github.com/gofrs/uuid v4.2.0+incompatible
	github.com/markbates/grift v1.5.0
	github.com/unrolled/secure v1.10.0
)
